\relax 
\providecommand\hyper@newdestlabel[2]{}
\catcode `"\active 
\catcode `<\active 
\catcode `>\active 
\@nameuse{es@quoting}
\providecommand\HyperFirstAtBeginDocument{\AtBeginDocument}
\HyperFirstAtBeginDocument{\ifx\hyper@anchor\@undefined
\global\let\oldcontentsline\contentsline
\gdef\contentsline#1#2#3#4{\oldcontentsline{#1}{#2}{#3}}
\global\let\oldnewlabel\newlabel
\gdef\newlabel#1#2{\newlabelxx{#1}#2}
\gdef\newlabelxx#1#2#3#4#5#6{\oldnewlabel{#1}{{#2}{#3}}}
\AtEndDocument{\ifx\hyper@anchor\@undefined
\let\contentsline\oldcontentsline
\let\newlabel\oldnewlabel
\fi}
\fi}
\global\let\hyper@last\relax 
\gdef\HyperFirstAtBeginDocument#1{#1}
\providecommand\HyField@AuxAddToFields[1]{}
\providecommand\HyField@AuxAddToCoFields[2]{}
\providecommand\tcolorbox@label[2]{}
\select@language{spanish}
\@writefile{toc}{\select@language{spanish}}
\@writefile{lof}{\select@language{spanish}}
\@writefile{lot}{\select@language{spanish}}
\pgfsyspdfmark {pgfid1}{13579834}{44027081}
\pgfsyspdfmark {pgfid2}{13921710}{44027081}
\@writefile{toc}{\contentsline {section}{\numberline {1}Script para agregar n\IeC {\'u}meros}{1}{section.1}}
\@writefile{lof}{\contentsline {figure}{\numberline {1}{\ignorespaces Script para agregar n\IeC {\'u}meros}}{1}{figure.1}}
\@writefile{toc}{\contentsline {section}{\numberline {2}Script para encontrar el n\IeC {\'u}mero mayor}{2}{section.2}}
\@writefile{lof}{\contentsline {figure}{\numberline {2}{\ignorespaces Script para encontrar el n\IeC {\'u}mero mayor}}{2}{figure.2}}
\@writefile{toc}{\contentsline {section}{\numberline {3}Script while loop}{2}{section.3}}
\@writefile{lof}{\contentsline {figure}{\numberline {3}{\ignorespaces Script while loop}}{2}{figure.3}}
\@writefile{toc}{\contentsline {section}{\numberline {4}Script Calculadora}{3}{section.4}}
\@writefile{lof}{\contentsline {figure}{\numberline {4}{\ignorespaces Script Calculadora}}{3}{figure.4}}
\@writefile{toc}{\contentsline {section}{\numberline {5}Script para ver fecha, hora, nombre de usario y directorio actual}{3}{section.5}}
\@writefile{lof}{\contentsline {figure}{\numberline {5}{\ignorespaces Script para ver fecha, hora, nombre de usario y directorio actual}}{3}{figure.5}}
\@writefile{toc}{\contentsline {section}{\numberline {6}Script para imprimir n\IeC {\'u}mero reverso}{4}{section.6}}
\@writefile{lof}{\contentsline {figure}{\numberline {6}{\ignorespaces Script para imprimir n\IeC {\'u}mero reverso}}{4}{figure.6}}
\@writefile{toc}{\contentsline {section}{\numberline {7}Script para sumar digitos de un n\IeC {\'u}mero}{4}{section.7}}
\@writefile{lof}{\contentsline {figure}{\numberline {7}{\ignorespaces Script para sumar digitos de un n\IeC {\'u}mero}}{4}{figure.7}}
\@writefile{toc}{\contentsline {section}{\numberline {8}Script para saber si existe un archivo}{5}{section.8}}
\@writefile{lof}{\contentsline {figure}{\numberline {8}{\ignorespaces Script para saber si existe un archivo}}{5}{figure.8}}
\@writefile{toc}{\contentsline {section}{\numberline {9}Script para leer las l\IeC {\'\i }neas de un archivo}{5}{section.9}}
\@writefile{lof}{\contentsline {figure}{\numberline {9}{\ignorespaces Script para leer las l\IeC {\'\i }neas de un archivo}}{5}{figure.9}}
\@writefile{toc}{\contentsline {section}{\numberline {10}Script sayHello}{6}{section.10}}
\@writefile{lof}{\contentsline {figure}{\numberline {10}{\ignorespaces Sript sayHello}}{6}{figure.10}}
\@writefile{toc}{\contentsline {section}{\numberline {11}Script para imprimir datos}{6}{section.11}}
\@writefile{lof}{\contentsline {figure}{\numberline {11}{\ignorespaces Script para imprimir datos}}{6}{figure.11}}
\bibstyle{plain}
\bibdata{2.bibliography}
