\select@language {spanish}
\contentsline {section}{\numberline {1}Script para agregar n\IeC {\'u}meros}{1}{section.1}
\contentsline {section}{\numberline {2}Script para encontrar el n\IeC {\'u}mero mayor}{2}{section.2}
\contentsline {section}{\numberline {3}Script while loop}{2}{section.3}
\contentsline {section}{\numberline {4}Script Calculadora}{3}{section.4}
\contentsline {section}{\numberline {5}Script para ver fecha, hora, nombre de usario y directorio actual}{3}{section.5}
\contentsline {section}{\numberline {6}Script para imprimir n\IeC {\'u}mero reverso}{4}{section.6}
\contentsline {section}{\numberline {7}Script para sumar digitos de un n\IeC {\'u}mero}{4}{section.7}
\contentsline {section}{\numberline {8}Script para saber si existe un archivo}{5}{section.8}
\contentsline {section}{\numberline {9}Script para leer las l\IeC {\'\i }neas de un archivo}{5}{section.9}
\contentsline {section}{\numberline {10}Script sayHello}{6}{section.10}
\contentsline {section}{\numberline {11}Script para imprimir datos}{6}{section.11}
